{"page":1,"per_page":15,"photos":[{"id":102104,"width":2827,"height":2827,"url":"https://www.pexels.com/photo/healthy-apple-fruits-natural-102104/","photographer":"mali maeder","photographer_url":"https://www.pexels.com/@mali","photographer_id":7311,"avg_color":"#ECCEC4","src":{"original":"https://images.pexels.com/photos/102104/pexels-photo-102104.jpeg","large2x":"https://images.pexels.com/photos/102104/pexels-photo-102104.jpeg?auto=compress\u0026cs=tinysrgb\u0026dpr=2\u0026h=650\u0026w=940","large":"https://images.pexels.com/photos/102104/pexels-photo-102104.jpeg?auto=compress\u0026cs=tinysrgb\u0026h=650\u0026w=940","medium":"https://images.pexels.com/photos/102104/pexels-photo-102104.jpeg?auto=compress\u0026cs=tinysrgb\u0026h=350","small":"https://images.pexels.com/photos/102104/pexels-photo-102104.jpeg?auto=compress\u0026cs=tinysrgb\u0026h=130","portrait":"https://images.pexels.com/photos/102104/pexels-photo-102104.jpeg?auto=compress\u0026cs=tinysrgb\u0026fit=crop\u0026h=1200\u0026w=800","landscape":"https://images.pexels.com/photos/102104/pexels-photo-102104.jpeg?auto=compress\u0026cs=tinysrgb\u0026fit=crop\u0026h=627\u0026w=1200","tiny":"https://images.pexels.com/photos/102104/pexels-photo-102104.jpeg?auto=compress\u0026cs=tinysrgb\u0026dpr=1\u0026fit=crop\u0026h=200\u0026w=280"},"liked":false},{"id":1630588,"width":2614,"height":3116,"url":"https://www.pexels.com/photo/red-apple-1630588/","photographer":"John  Finkelstein","photographer_url":"https://www.pexels.com/@john-finkelstein-680076","photographer_id":680076,"avg_color":"#C5A9A3","src":{"original":"https://images.pexels.com/photos/1630588/pexels-photo-1630588.jpeg","large2x":"https://images.pexels.com/photos/1630588/pexels-photo-1630588.jpeg?auto=compress\u0026cs=tinysrgb\u0026dpr=2\u0026h=650\u0026w=940","large":"https://images.pexels.com/photos/1630588/pexels-photo-1630588.jpeg?auto=compress\u0026cs=tinysrgb\u0026h=650\u0026w=940","medium":"https://images.pexels.com/photos/1630588/pexels-photo-1630588.jpeg?auto=compress\u0026cs=tinysrgb\u0026h=350","small":"https://images.pexels.com/photos/1630588/pexels-photo-1630588.jpeg?auto=compress\u0026cs=tinysrgb\u0026h=130","portrait":"https://images.pexels.com/photos/1630588/pexels-photo-1630588.jpeg?auto=compress\u0026cs=tinysrgb\u0026fit=crop\u0026h=1200\u0026w=800","landscape":"https://images.pexels.com/photos/1630588/pexels-photo-1630588.jpeg?auto=compress\u0026cs=tinysrgb\u0026fit=crop\u0026h=627\u0026w=1200","tiny":"https://images.pexels.com/photos/1630588/pexels-photo-1630588.jpeg?auto=compress\u0026cs=tinysrgb\u0026dpr=1\u0026fit=crop\u0026h=200\u0026w=280"},"liked":false},{"id":206959,"width":5488,"height":3504,"url":"https://www.pexels.com/photo/shallow-focus-photography-of-red-apple-on-gray-pavement-206959/","photographer":"Pixabay","photographer_url":"https://www.pexels.com/@pixabay","photographer_id":2659,"avg_color":"#674639","src":{"original":"https://images.pexels.com/photos/206959/pexels-photo-206959.jpeg","large2x":"https://images.pexels.com/photos/206959/pexels-photo-206959.jpeg?auto=compress\u0026cs=tinysrgb\u0026dpr=2\u0026h=650\u0026w=940","large":"https://images.pexels.com/photos/206959/pexels-photo-206959.jpeg?auto=compress\u0026cs=tinysrgb\u0026h=650\u0026w=940","medium":"https://images.pexels.com/photos/206959/pexels-photo-206959.jpeg?auto=compress\u0026cs=tinysrgb\u0026h=350","small":"https://images.pexels.com/photos/206959/pexels-photo-206959.jpeg?auto=compress\u0026cs=tinysrgb\u0026h=130","portrait":"https://images.pexels.com/photos/206959/pexels-photo-206959.jpeg?auto=compress\u0026cs=tinysrgb\u0026fit=crop\u0026h=1200\u0026w=800","landscape":"https://images.pexels.com/photos/206959/pexels-photo-206959.jpeg?auto=compress\u0026cs=tinysrgb\u0026fit=crop\u0026h=627\u0026w=1200","tiny":"https://images.pexels.com/photos/206959/pexels-photo-206959.jpeg?auto=compress\u0026cs=tinysrgb\u0026dpr=1\u0026fit=crop\u0026h=200\u0026w=280"},"liked":false},{"id":544295,"width":3952,"height":2960,"url":"https://www.pexels.com/photo/apple-logo-544295/","photographer":"Armand  Valendez","photographer_url":"https://www.pexels.com/@armandvalendez","photographer_id":151857,"avg_color":"#676767","src":{"original":"https://images.pexels.com/photos/544295/pexels-photo-544295.jpeg","large2x":"https://images.pexels.com/photos/544295/pexels-photo-544295.jpeg?auto=compress\u0026cs=tinysrgb\u0026dpr=2\u0026h=650\u0026w=940","large":"https://images.pexels.com/photos/544295/pexels-photo-544295.jpeg?auto=compress\u0026cs=tinysrgb\u0026h=650\u0026w=940","medium":"https://images.pexels.com/photos/544295/pexels-photo-544295.jpeg?auto=compress\u0026cs=tinysrgb\u0026h=350","small":"https://images.pexels.com/photos/544295/pexels-photo-544295.jpeg?auto=compress\u0026cs=tinysrgb\u0026h=130","portrait":"https://images.pexels.com/photos/544295/pexels-photo-544295.jpeg?auto=compress\u0026cs=tinysrgb\u0026fit=crop\u0026h=1200\u0026w=800","landscape":"https://images.pexels.com/photos/544295/pexels-photo-544295.jpeg?auto=compress\u0026cs=tinysrgb\u0026fit=crop\u0026h=627\u0026w=1200","tiny":"https://images.pexels.com/photos/544295/pexels-photo-544295.jpeg?auto=compress\u0026cs=tinysrgb\u0026dpr=1\u0026fit=crop\u0026h=200\u0026w=280"},"liked":false},{"id":533343,"width":3872,"height":2592,"url":"https://www.pexels.com/photo/green-apple-fruit-533343/","photographer":"Pixabay","photographer_url":"https://www.pexels.com/@pixabay","photographer_id":2659,"avg_color":"#DADDD0","src":{"original":"https://images.pexels.com/photos/533343/pexels-photo-533343.jpeg","large2x":"https://images.pexels.com/photos/533343/pexels-photo-533343.jpeg?auto=compress\u0026cs=tinysrgb\u0026dpr=2\u0026h=650\u0026w=940","large":"https://images.pexels.com/photos/533343/pexels-photo-533343.jpeg?auto=compress\u0026cs=tinysrgb\u0026h=650\u0026w=940","medium":"https://images.pexels.com/photos/533343/pexels-photo-533343.jpeg?auto=compress\u0026cs=tinysrgb\u0026h=350","small":"https://images.pexels.com/photos/533343/pexels-photo-533343.jpeg?auto=compress\u0026cs=tinysrgb\u0026h=130","portrait":"https://images.pexels.com/photos/533343/pexels-photo-533343.jpeg?auto=compress\u0026cs=tinysrgb\u0026fit=crop\u0026h=1200\u0026w=800","landscape":"https://images.pexels.com/photos/533343/pexels-photo-533343.jpeg?auto=compress\u0026cs=tinysrgb\u0026fit=crop\u0026h=627\u0026w=1200","tiny":"https://images.pexels.com/photos/533343/pexels-photo-533343.jpeg?auto=compress\u0026cs=tinysrgb\u0026dpr=1\u0026fit=crop\u0026h=200\u0026w=280"},"liked":false},{"id":347926,"width":3500,"height":2344,"url":"https://www.pexels.com/photo/close-up-photo-of-red-and-yellow-apple-fruits-on-green-leaves-347926/","photographer":"Aphiwat  chuangchoem","photographer_url":"https://www.pexels.com/@fecundap6","photographer_id":112603,"avg_color":"#877250","src":{"original":"https://images.pexels.com/photos/347926/pexels-photo-347926.jpeg","large2x":"https://images.pexels.com/photos/347926/pexels-photo-347926.jpeg?auto=compress\u0026cs=tinysrgb\u0026dpr=2\u0026h=650\u0026w=940","large":"https://images.pexels.com/photos/347926/pexels-photo-347926.jpeg?auto=compress\u0026cs=tinysrgb\u0026h=650\u0026w=940","medium":"https://images.pexels.com/photos/347926/pexels-photo-347926.jpeg?auto=compress\u0026cs=tinysrgb\u0026h=350","small":"https://images.pexels.com/photos/347926/pexels-photo-347926.jpeg?auto=compress\u0026cs=tinysrgb\u0026h=130","portrait":"https://images.pexels.com/photos/347926/pexels-photo-347926.jpeg?auto=compress\u0026cs=tinysrgb\u0026fit=crop\u0026h=1200\u0026w=800","landscape":"https://images.pexels.com/photos/347926/pexels-photo-347926.jpeg?auto=compress\u0026cs=tinysrgb\u0026fit=crop\u0026h=627\u0026w=1200","tiny":"https://images.pexels.com/photos/347926/pexels-photo-347926.jpeg?auto=compress\u0026cs=tinysrgb\u0026dpr=1\u0026fit=crop\u0026h=200\u0026w=280"},"liked":false},{"id":635705,"width":5184,"height":3359,"url":"https://www.pexels.com/photo/red-apples-635705/","photographer":"Elizabeth Tr. Armstrong","photographer_url":"https://www.pexels.com/@elizabeth-tr-armstrong-128038","photographer_id":128038,"avg_color":"#938C73","src":{"original":"https://images.pexels.com/photos/635705/pexels-photo-635705.jpeg","large2x":"https://images.pexels.com/photos/635705/pexels-photo-635705.jpeg?auto=compress\u0026cs=tinysrgb\u0026dpr=2\u0026h=650\u0026w=940","large":"https://images.pexels.com/photos/635705/pexels-photo-635705.jpeg?auto=compress\u0026cs=tinysrgb\u0026h=650\u0026w=940","medium":"https://images.pexels.com/photos/635705/pexels-photo-635705.jpeg?auto=compress\u0026cs=tinysrgb\u0026h=350","small":"https://images.pexels.com/photos/635705/pexels-photo-635705.jpeg?auto=compress\u0026cs=tinysrgb\u0026h=130","portrait":"https://images.pexels.com/photos/635705/pexels-photo-635705.jpeg?auto=compress\u0026cs=tinysrgb\u0026fit=crop\u0026h=1200\u0026w=800","landscape":"https://images.pexels.com/photos/635705/pexels-photo-635705.jpeg?auto=compress\u0026cs=tinysrgb\u0026fit=crop\u0026h=627\u0026w=1200","tiny":"https://images.pexels.com/photos/635705/pexels-photo-635705.jpeg?auto=compress\u0026cs=tinysrgb\u0026dpr=1\u0026fit=crop\u0026h=200\u0026w=280"},"liked":false},{"id":209449,"width":6000,"height":4000,"url":"https://www.pexels.com/photo/red-apple-fruit-on-surface-209449/","photographer":"Pixabay","photographer_url":"https://www.pexels.com/@pixabay","photographer_id":2659,"avg_color":"#503325","src":{"original":"https://images.pexels.com/photos/209449/pexels-photo-209449.jpeg","large2x":"https://images.pexels.com/photos/209449/pexels-photo-209449.jpeg?auto=compress\u0026cs=tinysrgb\u0026dpr=2\u0026h=650\u0026w=940","large":"https://images.pexels.com/photos/209449/pexels-photo-209449.jpeg?auto=compress\u0026cs=tinysrgb\u0026h=650\u0026w=940","medium":"https://images.pexels.com/photos/209449/pexels-photo-209449.jpeg?auto=compress\u0026cs=tinysrgb\u0026h=350","small":"https://images.pexels.com/photos/209449/pexels-photo-209449.jpeg?auto=compress\u0026cs=tinysrgb\u0026h=130","portrait":"https://images.pexels.com/photos/209449/pexels-photo-209449.jpeg?auto=compress\u0026cs=tinysrgb\u0026fit=crop\u0026h=1200\u0026w=800","landscape":"https://images.pexels.com/photos/209449/pexels-photo-209449.jpeg?auto=compress\u0026cs=tinysrgb\u0026fit=crop\u0026h=627\u0026w=1200","tiny":"https://images.pexels.com/photos/209449/pexels-photo-209449.jpeg?auto=compress\u0026cs=tinysrgb\u0026dpr=1\u0026fit=crop\u0026h=200\u0026w=280"},"liked":false},{"id":574919,"width":5184,"height":3456,"url":"https://www.pexels.com/photo/red-apples-on-tree-574919/","photographer":"Tom Swinnen","photographer_url":"https://www.pexels.com/@shottrotter","photographer_id":174069,"avg_color":"#8C8567","src":{"original":"https://images.pexels.com/photos/574919/pexels-photo-574919.jpeg","large2x":"https://images.pexels.com/photos/574919/pexels-photo-574919.jpeg?auto=compress\u0026cs=tinysrgb\u0026dpr=2\u0026h=650\u0026w=940","large":"https://images.pexels.com/photos/574919/pexels-photo-574919.jpeg?auto=compress\u0026cs=tinysrgb\u0026h=650\u0026w=940","medium":"https://images.pexels.com/photos/574919/pexels-photo-574919.jpeg?auto=compress\u0026cs=tinysrgb\u0026h=350","small":"https://images.pexels.com/photos/574919/pexels-photo-574919.jpeg?auto=compress\u0026cs=tinysrgb\u0026h=130","portrait":"https://images.pexels.com/photos/574919/pexels-photo-574919.jpeg?auto=compress\u0026cs=tinysrgb\u0026fit=crop\u0026h=1200\u0026w=800","landscape":"https://images.pexels.com/photos/574919/pexels-photo-574919.jpeg?auto=compress\u0026cs=tinysrgb\u0026fit=crop\u0026h=627\u0026w=1200","tiny":"https://images.pexels.com/photos/574919/pexels-photo-574919.jpeg?auto=compress\u0026cs=tinysrgb\u0026dpr=1\u0026fit=crop\u0026h=200\u0026w=280"},"liked":false},{"id":1237103,"width":3894,"height":5841,"url":"https://www.pexels.com/photo/man-passing-an-apple-store-1237103/","photographer":"zhang kaiyv","photographer_url":"https://www.pexels.com/@zhangkaiyv","photographer_id":52377,"avg_color":"#777572","src":{"original":"https://images.pexels.com/photos/1237103/pexels-photo-1237103.jpeg","large2x":"https://images.pexels.com/photos/1237103/pexels-photo-1237103.jpeg?auto=compress\u0026cs=tinysrgb\u0026dpr=2\u0026h=650\u0026w=940","large":"https://images.pexels.com/photos/1237103/pexels-photo-1237103.jpeg?auto=compress\u0026cs=tinysrgb\u0026h=650\u0026w=940","medium":"https://images.pexels.com/photos/1237103/pexels-photo-1237103.jpeg?auto=compress\u0026cs=tinysrgb\u0026h=350","small":"https://images.pexels.com/photos/1237103/pexels-photo-1237103.jpeg?auto=compress\u0026cs=tinysrgb\u0026h=130","portrait":"https://images.pexels.com/photos/1237103/pexels-photo-1237103.jpeg?auto=compress\u0026cs=tinysrgb\u0026fit=crop\u0026h=1200\u0026w=800","landscape":"https://images.pexels.com/photos/1237103/pexels-photo-1237103.jpeg?auto=compress\u0026cs=tinysrgb\u0026fit=crop\u0026h=627\u0026w=1200","tiny":"https://images.pexels.com/photos/1237103/pexels-photo-1237103.jpeg?auto=compress\u0026cs=tinysrgb\u0026dpr=1\u0026fit=crop\u0026h=200\u0026w=280"},"liked":false},{"id":38068,"width":5152,"height":3290,"url":"https://www.pexels.com/photo/wet-green-apple-38068/","photographer":"Skitterphoto","photographer_url":"https://www.pexels.com/@skitterphoto","photographer_id":2664,"avg_color":"#CEEEC7","src":{"original":"https://images.pexels.com/photos/38068/pexels-photo-38068.jpeg","large2x":"https://images.pexels.com/photos/38068/pexels-photo-38068.jpeg?auto=compress\u0026cs=tinysrgb\u0026dpr=2\u0026h=650\u0026w=940","large":"https://images.pexels.com/photos/38068/pexels-photo-38068.jpeg?auto=compress\u0026cs=tinysrgb\u0026h=650\u0026w=940","medium":"https://images.pexels.com/photos/38068/pexels-photo-38068.jpeg?auto=compress\u0026cs=tinysrgb\u0026h=350","small":"https://images.pexels.com/photos/38068/pexels-photo-38068.jpeg?auto=compress\u0026cs=tinysrgb\u0026h=130","portrait":"https://images.pexels.com/photos/38068/pexels-photo-38068.jpeg?auto=compress\u0026cs=tinysrgb\u0026fit=crop\u0026h=1200\u0026w=800","landscape":"https://images.pexels.com/photos/38068/pexels-photo-38068.jpeg?auto=compress\u0026cs=tinysrgb\u0026fit=crop\u0026h=627\u0026w=1200","tiny":"https://images.pexels.com/photos/38068/pexels-photo-38068.jpeg?auto=compress\u0026cs=tinysrgb\u0026dpr=1\u0026fit=crop\u0026h=200\u0026w=280"},"liked":false},{"id":575610,"width":3264,"height":4928,"url":"https://www.pexels.com/photo/red-apple-575610/","photographer":"Bruno Scramgnon","photographer_url":"https://www.pexels.com/@brunoscramgnon","photographer_id":3159,"avg_color":"#D3CDD5","src":{"original":"https://images.pexels.com/photos/575610/pexels-photo-575610.jpeg","large2x":"https://images.pexels.com/photos/575610/pexels-photo-575610.jpeg?auto=compress\u0026cs=tinysrgb\u0026dpr=2\u0026h=650\u0026w=940","large":"https://images.pexels.com/photos/575610/pexels-photo-575610.jpeg?auto=compress\u0026cs=tinysrgb\u0026h=650\u0026w=940","medium":"https://images.pexels.com/photos/575610/pexels-photo-575610.jpeg?auto=compress\u0026cs=tinysrgb\u0026h=350","small":"https://images.pexels.com/photos/575610/pexels-photo-575610.jpeg?auto=compress\u0026cs=tinysrgb\u0026h=130","portrait":"https://images.pexels.com/photos/575610/pexels-photo-575610.jpeg?auto=compress\u0026cs=tinysrgb\u0026fit=crop\u0026h=1200\u0026w=800","landscape":"https://images.pexels.com/photos/575610/pexels-photo-575610.jpeg?auto=compress\u0026cs=tinysrgb\u0026fit=crop\u0026h=627\u0026w=1200","tiny":"https://images.pexels.com/photos/575610/pexels-photo-575610.jpeg?auto=compress\u0026cs=tinysrgb\u0026dpr=1\u0026fit=crop\u0026h=200\u0026w=280"},"liked":false},{"id":209439,"width":6000,"height":4000,"url":"https://www.pexels.com/photo/red-apple-fruit-209439/","photographer":"Pixabay","photographer_url":"https://www.pexels.com/@pixabay","photographer_id":2659,"avg_color":"#551E1C","src":{"original":"https://images.pexels.com/photos/209439/pexels-photo-209439.jpeg","large2x":"https://images.pexels.com/photos/209439/pexels-photo-209439.jpeg?auto=compress\u0026cs=tinysrgb\u0026dpr=2\u0026h=650\u0026w=940","large":"https://images.pexels.com/photos/209439/pexels-photo-209439.jpeg?auto=compress\u0026cs=tinysrgb\u0026h=650\u0026w=940","medium":"https://images.pexels.com/photos/209439/pexels-photo-209439.jpeg?auto=compress\u0026cs=tinysrgb\u0026h=350","small":"https://images.pexels.com/photos/209439/pexels-photo-209439.jpeg?auto=compress\u0026cs=tinysrgb\u0026h=130","portrait":"https://images.pexels.com/photos/209439/pexels-photo-209439.jpeg?auto=compress\u0026cs=tinysrgb\u0026fit=crop\u0026h=1200\u0026w=800","landscape":"https://images.pexels.com/photos/209439/pexels-photo-209439.jpeg?auto=compress\u0026cs=tinysrgb\u0026fit=crop\u0026h=627\u0026w=1200","tiny":"https://images.pexels.com/photos/209439/pexels-photo-209439.jpeg?auto=compress\u0026cs=tinysrgb\u0026dpr=1\u0026fit=crop\u0026h=200\u0026w=280"},"liked":false},{"id":616837,"width":5760,"height":3840,"url":"https://www.pexels.com/photo/grannysmith-apple-with-bite-616837/","photographer":"Toni Cuenca","photographer_url":"https://www.pexels.com/@ifreestock","photographer_id":133446,"avg_color":"#9CE3A1","src":{"original":"https://images.pexels.com/photos/616837/pexels-photo-616837.jpeg","large2x":"https://images.pexels.com/photos/616837/pexels-photo-616837.jpeg?auto=compress\u0026cs=tinysrgb\u0026dpr=2\u0026h=650\u0026w=940","large":"https://images.pexels.com/photos/616837/pexels-photo-616837.jpeg?auto=compress\u0026cs=tinysrgb\u0026h=650\u0026w=940","medium":"https://images.pexels.com/photos/616837/pexels-photo-616837.jpeg?auto=compress\u0026cs=tinysrgb\u0026h=350","small":"https://images.pexels.com/photos/616837/pexels-photo-616837.jpeg?auto=compress\u0026cs=tinysrgb\u0026h=130","portrait":"https://images.pexels.com/photos/616837/pexels-photo-616837.jpeg?auto=compress\u0026cs=tinysrgb\u0026fit=crop\u0026h=1200\u0026w=800","landscape":"https://images.pexels.com/photos/616837/pexels-photo-616837.jpeg?auto=compress\u0026cs=tinysrgb\u0026fit=crop\u0026h=627\u0026w=1200","tiny":"https://images.pexels.com/photos/616837/pexels-photo-616837.jpeg?auto=compress\u0026cs=tinysrgb\u0026dpr=1\u0026fit=crop\u0026h=200\u0026w=280"},"liked":false},{"id":306763,"width":5472,"height":3648,"url":"https://www.pexels.com/photo/close-up-of-camera-over-black-background-306763/","photographer":"ATC Comm Photo","photographer_url":"https://www.pexels.com/@atccommphoto","photographer_id":93743,"avg_color":"#4B4A4B","src":{"original":"https://images.pexels.com/photos/306763/pexels-photo-306763.jpeg","large2x":"https://images.pexels.com/photos/306763/pexels-photo-306763.jpeg?auto=compress\u0026cs=tinysrgb\u0026dpr=2\u0026h=650\u0026w=940","large":"https://images.pexels.com/photos/306763/pexels-photo-306763.jpeg?auto=compress\u0026cs=tinysrgb\u0026h=650\u0026w=940","medium":"https://images.pexels.com/photos/306763/pexels-photo-306763.jpeg?auto=compress\u0026cs=tinysrgb\u0026h=350","small":"https://images.pexels.com/photos/306763/pexels-photo-306763.jpeg?auto=compress\u0026cs=tinysrgb\u0026h=130","portrait":"https://images.pexels.com/photos/306763/pexels-photo-306763.jpeg?auto=compress\u0026cs=tinysrgb\u0026fit=crop\u0026h=1200\u0026w=800","landscape":"https://images.pexels.com/photos/306763/pexels-photo-306763.jpeg?auto=compress\u0026cs=tinysrgb\u0026fit=crop\u0026h=627\u0026w=1200","tiny":"https://images.pexels.com/photos/306763/pexels-photo-306763.jpeg?auto=compress\u0026cs=tinysrgb\u0026dpr=1\u0026fit=crop\u0026h=200\u0026w=280"},"liked":false}],"total_results":3767,"next_page":"https://api.pexels.com/v1/search/?page=2\u0026per_page=15\u0026query=apple"}